Multiple plots • bro
…
# test bro_facet_wrap_paged -----------------------------------------------

bro_dataset_expression
#> # A tibble: 336 x 7
#>    external_gene_n… genotype timepoint sample_type animal_number expression
#>    <chr>            <chr>    <chr>     <chr>       <chr>              <dbl>
#>  1 Mxd3             TDP43.M… 14w       TRAP        508                24.3 
#>  2 Mxd3             WT       14w       SC          556                 9.24
#>  3 Mxd3             TDP43.M… 14w       SC          557                12.1 
#>  4 Mxd3             TDP43.M… 14w       SC          566                 7.81
#>  5 Mxd3             TDP43.M… 14w       TRAP        566                69.3 
#>  6 Mxd3             TDP43.M… 14w       SC          578                12.5 
#>  7 Mxd3             TDP43.M… 14w       TRAP        578                27.5 
#>  8 Mxd3             TDP43.M… 14w       SC          579                24.0 
#>  9 Mxd3             TDP43.M… 14w       TRAP        579                29.6 
#> 10 Mxd3             WT       9w        SC          605                13.5 
#> # … with 326 more rows, and 1 more variable: sample <chr>
…
